Final Project
…
We will do this by making a new data frame with each day and time period and the number of accidents. Based on the table, we will look at the data for all of the Sundays in April, and graph their values.

accidents %>% group_by(month, day, day_of_week) %>% summarize(n = n()) %>% ungroup() %>% mutate(normalized =  
              (n - mean(n))/sd(n)) %>% arrange(desc(normalized)) 

## # A tibble: 366 x 5
##    month       day day_of_week     n normalized
##    <ord>     <int> <fct>       <int>      <dbl>
##  1 July         21 SATURDAY      113       4.82
##  2 January      21 SATURDAY      111       4.66
##  3 December      9 SUNDAY         98       3.65
##  4 June         12 TUESDAY        95       3.42
##  5 August       26 SUNDAY         92       3.19
##  6 February     29 WEDNESDAY      86       2.72
##  7 September    18 TUESDAY        83       2.49
##  8 October      15 MONDAY         83       2.49
##  9 November     27 TUESDAY        83       2.49
## 10 October      19 FRIDAY         81       2.33
## #  with 356 more rows
…
To sum it up, we found that collisions involving two seperate moving objects are more likely to cause an injury versus just any accident. This data also shows that using the overall mean to determine if there will be an injury given an accident is not good enough.

For the last part, we tried to see if the time of the accident plays a role in the likelihood of an injury.

accidents %>% group_by(acc_time_code,day_of_week, injury) %>% summarize(count = n()) %>% ungroup() %>% group_by(acc_time_code, day_of_week) %>% mutate(total = sum(count)) %>% mutate(frac = count/total) %>% mutate(p_morethan = pnorm(frac, mean = total_mean, sd = total_mean / sqrt(count),lower.tail = FALSE))  %>% mutate(p_lessthan = pnorm(frac, mean = total_mean, sd = total_mean / sqrt(count),lower.tail = TRUE)) %>%  filter(injury == TRUE) %>% select(acc_time_code, day_of_week,frac, count, p_morethan, p_lessthan) %>% arrange(p_morethan)

## # A tibble: 42 x 6
## # Groups:   acc_time_code, day_of_week [42]
##    acc_time_code day_of_week  frac count p_morethan p_lessthan
##    <chr>         <fct>       <dbl> <int>      <dbl>      <dbl>
##  1 12:01-16:00   SUNDAY      0.415   204    0.00181      0.998
##  2 12:01-16:00   THURSDAY    0.404   215    0.00611      0.994
##  3 12:01-16:00   SATURDAY    0.390   237    0.0232       0.977
##  4 08:01-12:00   SATURDAY    0.396   171    0.0274       0.973
##  5 12:01-16:00   MONDAY      0.386   223    0.0393       0.961
##  6 16:01-20:00   SUNDAY      0.386   191    0.0516       0.948
##  7 08:01-12:00   THURSDAY    0.38    190    0.0820       0.918
##  8 08:01-12:00   WEDNESDAY   0.379   187    0.0880       0.912
##  9 20:01-24:00   THURSDAY    0.387   116    0.0976       0.902
## 10 20:01-24:00   MONDAY      0.380   115    0.143        0.857
## #  with 32 more rows
…
So overall, we found that it is very difficult to try and predict whether an injury will occur. So sadly we cannot make any statements about when injuries will occur, but we can say that the destruction of property may be a good indicator! If you think about it, this makes sense because accidents can be eradic and each one can be slightly different. Luckily, nowadays more cars are built to protect us if we get into an accident so it is difficult to predict when they will work without more information like speed and angles of crashes.

Mapping

We thought it would be interesting to look at where car crashes are happening in Maryland. To do this we need to edit the information that was given about the roads the accidents occurred on so that it is something we can search using a Google API. The reason we need to do this, is because we need to find the latitude and longitude of the accidents to be able to map them. We were only given the road names though, so by using a Google API we are able to map them using the technology that Google Maps uses. You can think of this as us preparing data to send to search on Google Maps, and then use receiving the latitude and longitude back from Google Maps.

accidents$intermednewroad <- substr(accidents$road, 9, str_length(accidents$road))
accidents$newintersectroad <- substr(accidents$intersect_road, 9, str_length(accidents$intersect_road))
accidents <- accidents %>%
  mutate(NEWESTroad= ifelse(str_detect(intermednewroad, "NO NAME"), substr(accidents$road, 0, 9), intermednewroad)) %>%
  mutate(NEWESTintersectroad= ifelse(str_detect(newintersectroad, "NO NAME"), substr(accidents$intersect_road, 0, 9), newintersectroad)) %>% select(-newintersectroad, -intermednewroad)

accidents

## # A tibble: 18,638 x 21
##    case_number barrack acc_date_time       acc_time_code day_of_week road 
##          <dbl> <fct>   <dttm>              <chr>         <fct>       <chr>
##  1  1363000002 Rockvi 2012-01-01 02:01:00 0:00-04:00    SUNDAY      IS 0
##  2  1296000023 Berlin  2012-01-01 18:01:00 16:01-20:00   SUNDAY      MD 0
##  3  1283000016 Prince 2012-01-01 07:01:00 04:01-08:00   SUNDAY      MD 0
##  4  1282000006 Leonar 2012-01-01 00:01:00 0:00-04:00    SUNDAY      MD 0
##  5  1267000007 Essex   2012-01-01 01:01:00 0:00-04:00    SUNDAY      IS 0
##  6  1267000006 Essex   2012-01-01 01:01:00 0:00-04:00    SUNDAY      IS 0
##  7  1267000005 Essex   2012-01-01 01:01:00 0:00-04:00    SUNDAY      IS 0
##  8  1266000090 Colleg 2012-01-01 06:01:00 04:01-08:00   SUNDAY      IS 0
##  9  1266000025 Colleg 2012-01-01 14:01:00 12:01-16:00   SUNDAY      US 0
## 10  1266000016 Colleg 2012-01-01 06:01:00 04:01-08:00   SUNDAY      US 0
## #  with 18,628 more rows, and 15 more variables: intersect_road <chr>,
## #   dist_from_intersect <dbl>, dist_direction <fct>, city_name <fct>,
## #   county_code <dbl>, county_name <fct>, vehicle_count <dbl>,
## #   prop_dest <fct>, injury <fct>, collision_with_1 <fct>,
## #   collision_with_2 <fct>, month <ord>, day <int>, NEWESTroad <chr>,
## #   NEWESTintersectroad <chr>
…
